…
Also common `dplyr` verbs that require the actual data will trigger the
`collect` function automatically.

    data("oecd/QNA") %>%
      filter(Subject == "Gross domestic product - expenditure approach",
             str_detect(Measure, "Growth rate.*from previous"),
             Frequency=="Quarterly") %>%
      filter(lubridate::year(time) >= 2015L) %>%
      group_by(Country) %>%
      summarize(`Average Q/Q growth rate` = mean(value))

    ## # A tibble: 56 x 2
    ##    Country                      `Average Q/Q growth rate`
    ##    <chr>                                            <dbl>
    ##  1 Argentina                                       -0.168
    ##  2 Australia                                        0.480
    ##  3 Austria                                          0.172
    ##  4 Belgium                                          0.194
    ##  5 Brazil                                          -0.105
    ##  6 Bulgaria                                         0.594
    ##  7 Canada                                           0.255
    ##  8 Chile                                            0.330
    ##  9 China (People's Republic of)                     1.65 
    ## 10 Colombia                                         0.427
    ## # … with 46 more rows
