…
The database hierarchy is very simple: Sources contain releases, and
releases contain time series.

To list all releases, for example, in source 1 (Board of Governors of
the Federal Reserve System), call:

    data("fred/source=1")
    #> # A tibble: 34 × 5
    #>    release_id name                                     press_release link  notes
    #>         <int> <chr>                                    <lgl>         <chr> <chr>
    #>  1         13 G.17 Industrial Production and Capacity… TRUE          http…  <NA>
    #>  2         14 G.19 Consumer Credit                     TRUE          http…  <NA>
    #>  3         15 G.5 Foreign Exchange Rates               TRUE          http…  <NA>
    #>  4         17 H.10 Foreign Exchange Rates              TRUE          http…  <NA>
    #>  5         18 H.15 Selected Interest Rates             TRUE          http…  <NA>
    #>  6         19 H.3 Aggregate Reserves of Depository In… TRUE          http… "The…
    #>  7         20 H.4.1 Factors Affecting Reserve Balances TRUE          http…  <NA>
    #>  8         21 H.6 Money Stock Measures                 TRUE          http…  <NA>
    #>  9         22 H.8 Assets and Liabilities of Commercia… TRUE          http…  <NA>
    #> 10         52 Z.1 Financial Accounts of the United St… TRUE          http… "The…
    #> # … with 24 more rows

To list all time series in the first release on the list (Industrial
Production and Capacity Utilization), call:

    data("fred/release=13")
    #> # A tibble: 1,884 × 14
    #>    series_id    title observation_sta… observation_end frequency frequency_short
    #>    <chr>        <chr> <chr>            <chr>           <chr>     <chr>          
    #>  1 CAPB00004S   Indu… 1948-01-01       2021-12-01      Monthly   M              
    #>  2 CAPB00004SQ  Indu… 1948-01-01       2021-10-01      Quarterly Q              
    #>  3 CAPB50001S   Indu… 1967-01-01       2021-12-01      Monthly   M              
    #>  4 CAPB50001SQ  Indu… 1967-01-01       2021-10-01      Quarterly Q              
    #>  5 CAPB5610CS   Indu… 1967-01-01       2021-12-01      Monthly   M              
    #>  6 CAPB5610CSQ  Indu… 1967-01-01       2021-10-01      Quarterly Q              
    #>  7 CAPB562A3CS  Indu… 1948-01-01       2021-12-01      Monthly   M              
    #>  8 CAPB562A3CSQ Indu… 1948-01-01       2021-10-01      Quarterly Q              
    #>  9 CAPB5640CS   Indu… 1948-01-01       2021-12-01      Monthly   M              
    #> 10 CAPB5640CSQ  Indu… 1948-01-01       2021-10-01      Quarterly Q              
    #> # … with 1,874 more rows, and 8 more variables: units <chr>, units_short <chr>,
    #> #   seasonal_adjustment <chr>, seasonal_adjustment_short <chr>,
    #> #   last_updated <chr>, popularity <int>, group_popularity <int>, notes <chr>

To download a time series, use the `get_data` function:

    data_get("fred/CAPB00004S")
    #> # A tibble: 888 × 7
    #>    series_id  Title            Frequency Units `Seasonal adju…` time       value
    #>    <chr>      <chr>            <chr>     <chr> <chr>            <date>     <dbl>
    #>  1 CAPB00004S Industrial Capa… Monthly   Inde… Seasonally Adju… 1948-01-01  16.3
    #>  2 CAPB00004S Industrial Capa… Monthly   Inde… Seasonally Adju… 1948-02-01  16.4
    #>  3 CAPB00004S Industrial Capa… Monthly   Inde… Seasonally Adju… 1948-03-01  16.5
    #>  4 CAPB00004S Industrial Capa… Monthly   Inde… Seasonally Adju… 1948-04-01  16.6
    #>  5 CAPB00004S Industrial Capa… Monthly   Inde… Seasonally Adju… 1948-05-01  16.6
    #>  6 CAPB00004S Industrial Capa… Monthly   Inde… Seasonally Adju… 1948-06-01  16.7
    #>  7 CAPB00004S Industrial Capa… Monthly   Inde… Seasonally Adju… 1948-07-01  16.8
    #>  8 CAPB00004S Industrial Capa… Monthly   Inde… Seasonally Adju… 1948-08-01  16.9
    #>  9 CAPB00004S Industrial Capa… Monthly   Inde… Seasonally Adju… 1948-09-01  17.0
    #> 10 CAPB00004S Industrial Capa… Monthly   Inde… Seasonally Adju… 1948-10-01  17.1
    #> # … with 878 more rows

You can also retrieve multiple time series by providing a vector of ids:

    d <- data_get(c("fred/CAPB5610CS", "fred/CAPB5640CS"))
    d
    #> # A tibble: 1,548 × 7
    #>    series_id  Title            Frequency Units `Seasonal adju…` time       value
    #>    <chr>      <chr>            <chr>     <chr> <chr>            <date>     <dbl>
    #>  1 CAPB5610CS Industrial Capa… Monthly   Inde… Seasonally Adju… 1967-01-01  72.2
    #>  2 CAPB5610CS Industrial Capa… Monthly   Inde… Seasonally Adju… 1967-02-01  72.5
    #>  3 CAPB5610CS Industrial Capa… Monthly   Inde… Seasonally Adju… 1967-03-01  72.9
    #>  4 CAPB5610CS Industrial Capa… Monthly   Inde… Seasonally Adju… 1967-04-01  73.2
    #>  5 CAPB5610CS Industrial Capa… Monthly   Inde… Seasonally Adju… 1967-05-01  73.5
    #>  6 CAPB5610CS Industrial Capa… Monthly   Inde… Seasonally Adju… 1967-06-01  73.9
    #>  7 CAPB5610CS Industrial Capa… Monthly   Inde… Seasonally Adju… 1967-07-01  74.2
    #>  8 CAPB5610CS Industrial Capa… Monthly   Inde… Seasonally Adju… 1967-08-01  74.5
    #>  9 CAPB5610CS Industrial Capa… Monthly   Inde… Seasonally Adju… 1967-09-01  74.9
    #> 10 CAPB5610CS Industrial Capa… Monthly   Inde… Seasonally Adju… 1967-10-01  75.2
    #> # … with 1,538 more rows
…
