…
## Exporting data to Excel

You can also export the data, for example to an [Excel
file](https://robonomist.github.io/raw/main/man/figures/export.xlsx):

``` r
tbl <-
  data("ec/esi_nace2§(Fin|Swe|Ger)§§2020-01-01") |>
  pivot_wider(names_from = Country)
tbl
#> # A tibble: 490 × 5
#>    Indicator                                   time       Germany Finland Sweden
#>    <chr>                                       <date>       <dbl>   <dbl>  <dbl>
#>  1 Industrial confidence indicator (40%)       2020-01-01   -10.5    -9.7   -1.3
#>  2 Services confidence indicator (30 %)        2020-01-01    19.9    10.1   12.4
#>  3 Consumer confidence indicator (20%)         2020-01-01    -2.9    -4.4   -3.5
#>  4 Retail trade confidence indicator (5%)      2020-01-01    -7.8    -6     21.3
#>  5 Construction confidence indicator (5%)      2020-01-01    14.1    -0.4   10.6
#>  6 The Economic sentiment indicator is a comp… 2020-01-01   104.     96.5   98.6
#>  7 The Employment expectations indicator is a… 2020-01-01   105.    105    102. 
#>  8 Industrial confidence indicator (40%)       2020-02-01   -10.4    -4.9    0.9
#>  9 Services confidence indicator (30 %)        2020-02-01    20.3     7      9.6
#> 10 Consumer confidence indicator (20%)         2020-02-01    -2.3    -4.9   -2.3
#> # ℹ 480 more rows
…
