Filtering large data tables • robonomistClient
…
Also common dplyr verbs that require the actual data will trigger the collect function automatically.

data("oecd/QNA") %>%
  filter(Subject == "Gross domestic product - expenditure approach",
         str_detect(Measure, "Growth rate.*from previous"),
         Frequency=="Quarterly") %>%
  filter(lubridate::year(time) >= 2015L) %>%
  group_by(Country) %>%
  summarize(`Average Q/Q growth rate` = mean(value))
#> # A tibble: 57 × 2
#>    Country                      `Average Q/Q growth rate`
#>    <chr>                                            <dbl>
#>  1 Argentina                                      -0.0551
#>  2 Australia                                       0.538 
#>  3 Austria                                         0.276 
#>  4 Belgium                                         0.295 
#>  5 Brazil                                         -0.0488
#>  6 Bulgaria                                        0.671 
#>  7 Canada                                          0.318 
#>  8 Chile                                           0.473 
#>  9 China (People's Republic of)                    1.58  
#> 10 Colombia                                        0.424 
#> # … with 47 more rows
…
